﻿[
	{
		"_id": "co-05",
		"_parentId": "course",
		"_type": "page",
		"_classes": "zh_cn",
		"title": "Instagram for Business",
		"displayTitle": "Instagram for Business",
		"pageBody": " ",
		"body": "喜愛 Instagram 的消費者往往擁有無限熱情、習慣透過影像探索這個世界，而這也讓 Instagram 成為適合展開行銷活動的環境。基於上述理由，Instagram 不但是一個與用戶密切相關的環境，也是您分享企業故事、展示產品、應用程式或服務的絕佳之處。",
		"_graphic": {
			"src": "course/en/images/contentObjects/instagram_for_business.png",
			"alt": "預留圖像。"
		},
		"linkText": "查看",
		"durationLabel": "時間：",
		"duration": "2 分鐘",
		"_pageLevelProgress": {
			"_isEnabled": true
		}
	},
	{
		"_id": "co-10",
		"_parentId": "course",
		"_type": "page",
		"_classes": "zh_cn",
		"title": "廣告創意最佳作法",
		"displayTitle": "廣告創意最佳作法",
		"pageBody": " ",
		"body": "在您開始使用 Instagram 之前，我們先來看一些最佳作法。",
		"_graphic": {
			"src": "course/en/images/contentObjects/best_practices.png",
			"alt": "預留圖像。"
		},
		"linkText": "查看",
		"durationLabel": "時間：",
		"duration": "2 分鐘",
		"_pageLevelProgress": {
			"_isEnabled": true
		}
	},
	{
		"_id": "co-15",
		"_parentId": "course",
		"_type": "page",
		"_classes": "zh_cn",
		"title": "廣告主入門祕訣",
		"displayTitle": "廣告主入門祕訣",
		"pageBody": " ",
		"body": "提供一些問題和最佳作法，幫助您熟悉 Instagram 的使用方式。",
		"_graphic": {
			"src": "course/en/images/contentObjects/tips_for_advertisers.png",
			"alt": "預留圖像。"
		},
		"linkText": "查看",
		"durationLabel": "時間：",
		"duration": "2 分鐘",
		"_pageLevelProgress": {
			"_isEnabled": true
		}
	},
	{
		"_id": "co-20",
		"_parentId": "course",
		"_type": "page",
		"_classes": "zh_cn",
		"title": "學習成果驗收",
		"displayTitle": "學習成果驗收",
		"pageBody": " ",
		"body": "驗收一下學習成果。",
		"_graphic": {
			"src": "course/en/images/contentObjects/instagram_community.png",
			"alt": "預留圖像。"
		},
		"linkText": "查看",
		"durationLabel": "時間：",
		"duration": "2 分鐘",
		"_pageLevelProgress": {
			"_isEnabled": true
		}
	}
]
