﻿{
    "_id": "course",
    "_type": "course",
    "title": "Instagram For Business",
    "displayTitle": "Instagram For Business",
    "body": "",
    "_buttons": {
        "_submit": {
            "buttonText": "提交",
            "ariaLabel": "點擊此處提交答案。"
        },
        "_reset": {
            "buttonText": "重設",
            "ariaLabel": "點擊此處重設問題。"
        },
        "_showCorrectAnswer": {
            "buttonText": "正確答案",
            "ariaLabel": "點擊此處顯示正確答案。"
        },
        "_hideCorrectAnswer": {
            "buttonText": "我的答案",
            "ariaLabel": "點擊此處顯示您的答案。"
        },
        "_showFeedback": {
            "buttonText": "顯示詳解",
            "ariaLabel": "點擊此處查看問題詳解。"
        },
        "remainingAttemptsText": "剩餘機會",
        "remainingAttemptText": "最後機會",
        "disabledAriaLabel": "目前無法使用此按鈕。"
    },
    "_globals": {
        "_components": {
            "_accordion": {
                "ariaRegion": "這個部分是含有文字的內容面板，可以收起或展開。選取項目名稱可切換要顯示的內容面板。",
                "instruction": ""
            },
            "_blank": {
                "ariaRegion": "",
                "instruction": ""
            },
            "_gmcq": {
                "ariaRegion": "這個部分是含有圖片的選擇題。選擇答案後，請點擊下方的提交按鈕。",
                "instruction": ""
            },
            "_graphic": {
                "ariaRegion": "",
                "instruction": ""
            },
            "_hotGraphic": {
                "ariaRegion": "您可以在以下部分的圖像中選擇熱點。選擇熱點後會彈出圖像與文字。點擊關閉按鈕可關閉彈出視窗。",
                "instruction": ""
            },
            "_matching": {
                "ariaRegion": "這部分的問題要請您從下方的下拉式功能表選出符合的答案。選擇答案後，請點擊提交按鈕。",
                "instruction": ""
            },
            "_mcq": {
                "ariaRegion": "這個部分是選擇題。選擇答案後，請點擊下方的提交按鈕",
                "instruction": ""
            },
            "_media": {
                "ariaRegion": "這部分是影片播放媒體。點擊播放／暫停按鈕就可以觀看或聆聽影片。或是您可以點擊下方連結下載文字稿。",
                "instruction": ""
            },
            "_narrative": {
                "ariaRegion": "這個部分是附文字的圖庫。使用繼續和返回導覽選項即可瀏覽內容。",
                "instruction": ""
            },
            "_slider": {
                "ariaRegion": "這個部分需要您選擇相關數值來作答。選擇數值後，請點擊下方的提交按鈕。",
                "instruction": ""
            },
            "_text": {
                "ariaRegion": "",
                "instruction": ""
            },
            "_textInput": {
                "ariaRegion": "這個部分的問題需要您在文字方塊中輸入答案。作答後，請點擊下方的提交按鈕。",
                "instruction": ""
            }
        },
        "_extensions": {
            "_pageLevelProgress": {
                "pageLevelProgress": "頁面區塊",
                "pageLevelProgressEnd": "您已經來到頁面區塊清單的結尾處。",
                "pageLevelProgressIndicatorBar": "進度列。選擇這裡可查看目前進度，然後任選一個項目即可前往瀏覽。您已經完成 ",
                "optionalContent": "自選內容"
            }
        },
        "_menu": {
            "_boxmenu": {
                "ariaRegion": "功能表",
                "menuItem": "功能表項目。",
                "menuEnd": "您已經來到功能表底部。"
            }
        },
        "_accessibility": {
            "_accessibilityToggleTextOn": "開啟協助工具？",
            "_accessibilityToggleTextOff": "關閉協助工具？",
            "_accessibilityInstructions": {
                "touch": "使用說明。向左滑動即可繼續。向右滑動即可返回。按兩下 Tab 鍵即可選擇。用雙指向上滑動即可前往頁面頂端。",
                "notouch": "使用說明。按下 Tab 鍵即可繼續。按下 Shift + Tab 鍵即可返回。按下 Enter 鍵即可選擇。按下 Escape 鍵即可前往頁面頂端。",
                "ipad": "觸控螢幕使用說明。向左滑動即可繼續。向右滑動即可返回。按兩下 Tab 鍵即可選擇。用雙指向上滑動即可前往頁面頂端。鍵盤使用說明。按向左鍵即可繼續。按向右鍵即可返回。使用上下鍵即可選擇。"
            },
            "_ariaLabels": {
                "navigation": "課程導覽列",
                "menuLoaded": "已載入功能表。",
                "menu": "功能表",
                "page": "頁面",
                "pageLoaded": "已載入頁面。",
                "pageEnd": "您已經來到頁面底部。",
                "previous": "返回",
                "navigationBack": "返回",
                "navigationDrawer": "開放式課程資源。",
                "close": "關閉",
                "closeDrawer": "關閉導覽抽屜",
                "closeResources": "關閉資源",
                "resourcesEnd": "您已經來到資源清單的結尾處。",
                "drawerBack": "返回導覽抽屜",
                "drawer": "側邊導覽抽屜的頂端",
                "closePopup": "關閉彈出視窗",
                "next": "繼續",
                "done": "完成",
                "complete": "已完成",
                "incomplete": "未完成",
                "incorrect": "錯誤",
                "correct": "正確",
                "locked": "鎖定",
                "accessibilityToggleButton": "按下此按鈕即可開啟或關閉協助工具",
                "feedbackPopUp": "已打開彈出視窗。",
                "menuBack": "返回功能表",
                "visited": "已瀏覽"
            }
        }
    },
    "_latestTrackingId": 19,
    "_pageLevelProgress": {
        "_isEnabled": true,
        "_altText": "個本頁已完成的部分。"
    },
    "_bookmarking": {
        "_isEnabled": true,
        "_level": "component",
        "title": "加入書籤",
        "body": "要從上次中斷的地方繼續嗎？",
        "_buttons": {
            "yes": "是",
            "no": "否"
        }
    },
    "_analytics": {
        "_isEnabled": true
    }
}